<?xml version="1.0" encoding="UTF-8" standalone="no"?>
<!-- Created with Inkscape (http://www.inkscape.org/) -->

<svg
   xmlns:dc="http://purl.org/dc/elements/1.1/"
   xmlns:cc="http://creativecommons.org/ns#"
   xmlns:rdf="http://www.w3.org/1999/02/22-rdf-syntax-ns#"
   xmlns:svg="http://www.w3.org/2000/svg"
   xmlns="http://www.w3.org/2000/svg"
   xmlns:sodipodi="http://sodipodi.sourceforge.net/DTD/sodipodi-0.dtd"
   xmlns:inkscape="http://www.inkscape.org/namespaces/inkscape"
   width="150mm"
   height="150mm"
   viewBox="0 0 150 150"
   version="1.1"
   id="svg8"
   inkscape:version="0.92.1 r15371"
   sodipodi:docname="after registration.svg">
  <defs
     id="defs2" />
  <sodipodi:namedview
     id="base"
     pagecolor="#ffffff"
     bordercolor="#666666"
     borderopacity="1.0"
     inkscape:pageopacity="0.0"
     inkscape:pageshadow="2"
     inkscape:zoom="1.0797765"
     inkscape:cx="302.76112"
     inkscape:cy="305.90648"
     inkscape:document-units="mm"
     inkscape:current-layer="layer1"
     showgrid="false"
     inkscape:window-width="1366"
     inkscape:window-height="706"
     inkscape:window-x="-8"
     inkscape:window-y="-8"
     inkscape:window-maximized="1"
     showguides="true"
     inkscape:guide-bbox="true">
    <sodipodi:guide
       position="77.633218,91.87363"
       orientation="1,0"
       id="guide4529"
       inkscape:locked="false" />
  </sodipodi:namedview>
  <metadata
     id="metadata5">
    <rdf:RDF>
      <cc:Work
         rdf:about="">
        <dc:format>image/svg+xml</dc:format>
        <dc:type
           rdf:resource="http://purl.org/dc/dcmitype/StillImage" />
        <dc:title></dc:title>
      </cc:Work>
    </rdf:RDF>
  </metadata>
  <g
     inkscape:label="Calque 1"
     inkscape:groupmode="layer"
     id="layer1"
     transform="translate(0,-147)">
    <flowRoot
       xml:space="preserve"
       id="flowRoot4485"
       style="font-style:normal;font-variant:normal;font-weight:normal;font-stretch:normal;font-size:10.66666698px;line-height:1.25;font-family:'8514oem';-inkscape-font-specification:'8514oem';letter-spacing:0px;word-spacing:0px;fill:#000000;fill-opacity:1;stroke:none"
       transform="matrix(0.26458333,0,0,0.26458333,3.2969685,152.34807)"><flowRegion
         id="flowRegion4487"><rect
           id="rect4489"
           width="457.14288"
           height="514.28571"
           x="77.14286"
           y="62.519684" /></flowRegion><flowPara
         id="flowPara4499">Welcome in the Vaqqer communitity .</flowPara><flowPara
         id="flowPara4501" /><flowPara
         id="flowPara4503" /><flowPara
         id="flowPara4505">We are really interested in helping you to setup right informations </flowPara><flowPara
         id="flowPara4507">regarding your activity. Below are recommandations that you could </flowPara><flowPara
         id="flowPara4509">follow :</flowPara><flowPara
         id="flowPara4511" /><flowPara
         id="flowPara4513" /><flowPara
         id="flowPara4515">Always focus your services, products and skills  regarding your </flowPara><flowPara
         id="flowPara4517"> activity. The more clear and simple you are the best you become.</flowPara><flowPara
         id="flowPara4519" /><flowPara
         id="flowPara4521" /><flowPara
         id="flowPara4523">Look at members who has the same activity than you to get an idea, </flowPara><flowPara
         id="flowPara4525">and try to use, to improve it.</flowPara><flowPara
         id="flowPara4527" /><flowPara
         id="flowPara4529" /><flowPara
         id="flowPara4531">Always present your community for new members, those are your futur </flowPara><flowPara
         id="flowPara4533">relations inside the community can be your friends, family, collegues, </flowPara><flowPara
         id="flowPara4535">neigberhood and others. </flowPara><flowPara
         id="flowPara4537" /><flowPara
         id="flowPara4539">Your offline relation become an online relation through Vaqqer and helps </flowPara><flowPara
         id="flowPara4541">you to reach new network.</flowPara><flowPara
         id="flowPara4543" /><flowPara
         id="flowPara4545">With those recommandations you are going to increase your network and </flowPara><flowPara
         id="flowPara4547">growth your activity. Read the guidlines for more informations.</flowPara><flowPara
         id="flowPara4549" /><flowPara
         id="flowPara4551">If you still cannot setup your profil or have any question regarding </flowPara><flowPara
         id="flowPara4553">Vaqqer please contact us.</flowPara><flowPara
         id="flowPara4555" /></flowRoot>    <text
       xml:space="preserve"
       style="font-style:normal;font-variant:normal;font-weight:normal;font-stretch:normal;font-size:1.13722301px;line-height:1.25;font-family:'8514oem';-inkscape-font-specification:'8514oem';letter-spacing:0px;word-spacing:0px;fill:#000000;fill-opacity:1;stroke:none;stroke-width:0.26458332"
       x="98.871132"
       y="212.32529"
       id="text4559"
       transform="scale(1.3536429,0.73874728)"><tspan
         sodipodi:role="line"
         id="tspan4557"
         x="98.871132"
         y="212.32529"
         style="font-size:5.68611526px;stroke-width:0.26458332">X</tspan></text>
    <ellipse
       style="opacity:1;fill:none;fill-opacity:1;stroke:#000000;stroke-width:0.76499999;stroke-linecap:round;stroke-linejoin:bevel;stroke-miterlimit:4;stroke-dasharray:none;stroke-dashoffset:0;stroke-opacity:1;paint-order:normal"
       id="path4561"
       cx="136.72256"
       cy="155.25372"
       rx="4.5357146"
       ry="3.0238097" />
  </g>
</svg>
